{
    "workbench.startupEditor": "none",
    "editor.fontFamily": "monaco",
    "editor.tabSize": 2,
    "editor.insertSpaces": false,
    "editor.wordWrap": "on",
		"editor.detectIndentation": false,
		"editor.trimAutoWhitespace": false,
		"editor.minimap.enabled": false,
		"telemetry.enableTelemetry": false,
		"telemetry.enableCrashReporter": false,
		"git.ignoreMissingGitWarning": true,
		"git.path":"C:\\Program Files\\Git\\bin\\git.exe",
		"html.format.wrapLineLength": 0,
		"files.eol": "\n",
		"workbench.enableExperiments": false,
		"files.hotExit": "off",
		"window.restoreWindows": "none",
		"window.newWindowDimensions": "maximized",
		"terminal.integrated.fontFamily": "D2Coding",
		"terminal.integrated.enableBell": true,
		"search.useIgnoreFiles": false,
		"editor.accessibilitySupport": "off",
		"gitlens.blame.ignoreWhitespace": true,
		"terminal.integrated.shell.windows": "C:\\WINDOWS\\System32\\cmd.exe",
		"terminal.integrated.confirmOnExit": true,
		"gitlens.views.repositories.files.layout": "list",
		"gitlens.views.search.files.layout": "list",
		"terminal.integrated.shellArgs.windows": "/K \"chcp 65001\"",
		"terminal.integrated.scrollback": 9999,
		"gitlens.codeLens.scopes": [
			"document",
			"containers"
		],
		"extensions.ignoreRecommendations": true,
		"editor.autoIndent": false,
		"gitlens.views.compare.files.layout": "tree",
		"breadcrumbs.enabled": false,
		"gitlens.currentLine.enabled": false,
		"gitlens.hovers.currentLine.over": "line",
		"vetur.format.options.useTabs": true,
		"vetur.format.defaultFormatter.js": "none",
		"vetur.format.defaultFormatter.html": "none",
		"vetur.validation.template": false,
		"window.zoomLevel": 0,
		"diffEditor.ignoreTrimWhitespace": false,
}